<?xml version="1.0" encoding="UTF-8" standalone="no"?>
<!-- Created with Inkscape (http://www.inkscape.org/) -->

<svg
   xmlns:dc="http://purl.org/dc/elements/1.1/"
   xmlns:cc="http://creativecommons.org/ns#"
   xmlns:rdf="http://www.w3.org/1999/02/22-rdf-syntax-ns#"
   xmlns:svg="http://www.w3.org/2000/svg"
   xmlns="http://www.w3.org/2000/svg"
   xmlns:sodipodi="http://sodipodi.sourceforge.net/DTD/sodipodi-0.dtd"
   xmlns:inkscape="http://www.inkscape.org/namespaces/inkscape"
   width="70.555534mm"
   height="41.147839mm"
   viewBox="0 0 249.99992 145.79943"
   id="svg4320"
   version="1.1"
   inkscape:version="0.91 r13725"
   sodipodi:docname="district_5.svg">
  <defs
     id="defs4322" />
  <sodipodi:namedview
     id="base"
     pagecolor="#ffffff"
     bordercolor="#666666"
     borderopacity="1.0"
     inkscape:pageopacity="0.0"
     inkscape:pageshadow="2"
     inkscape:zoom="1.4"
     inkscape:cx="189.37557"
     inkscape:cy="18.491535"
     inkscape:document-units="px"
     inkscape:current-layer="layer1"
     showgrid="false"
     fit-margin-top="0"
     fit-margin-left="0"
     fit-margin-right="0"
     fit-margin-bottom="0"
     inkscape:window-width="1366"
     inkscape:window-height="715"
     inkscape:window-x="-8"
     inkscape:window-y="-8"
     inkscape:window-maximized="1" />
  <metadata
     id="metadata4325">
    <rdf:RDF>
      <cc:Work
         rdf:about="">
        <dc:format>image/svg+xml</dc:format>
        <dc:type
           rdf:resource="http://purl.org/dc/dcmitype/StillImage" />
        <dc:title></dc:title>
      </cc:Work>
    </rdf:RDF>
  </metadata>
  <g
     inkscape:label="Calque 1"
     inkscape:groupmode="layer"
     id="layer1"
     transform="translate(-249.29836,-178.0285)">
    <path
       inkscape:connector-curvature="0"
       d="m 388.35144,320.57323 -3.53704,-1.26872 -1.61922,-4.59898 -0.86317,-0.61802 -2.0271,0.10953 -1.26026,1.27336 -1.33724,-5.80361 -1.93472,-1.87526 -3.10458,-1.63163 -1.45279,-2.54788 -2.7848,-0.61756 -1.51525,-1.53369 -1.75183,-0.63888 -0.98116,-1.68529 -2.62264,-1.76585 -1.55397,-2.32801 -0.62845,-1.65029 -0.50803,-3.31959 -2.5554,-0.82341 -1.61147,-2.23365 -0.38957,-3.63799 -1.30906,-2.7877 -2.02085,1.91908 -0.98602,-0.35757 -0.95554,-1.54157 -1.42033,1.6161 -1.06392,2.68755 -1.57426,1.2285 -1.25551,0.27215 -1.41894,1.57437 -2.49792,1.48745 -2.70829,0.2827 -1.823,1.99685 -3.55534,-2.47045 -2.04995,-0.31736 -0.23656,-3.3058 -2.13398,8.3e-4 -1.25111,0.93305 -1.34881,2.55032 -2.00833,0.83476 0.21292,0.82759 -2.10025,0.96979 -2.80693,3.07132 0.34343,2.09607 -1.62015,1.56997 -2.16701,0.92239 1.1563,1.35948 -0.28247,1.85603 0.5873,1.04409 -0.87522,1.67128 2.09677,2.24455 0.71365,1.82658 -0.65755,1.14065 -1.89984,1.24937 -1.88581,-1.12338 -1.16163,0.56076 -2.39048,2.39083 -1.68309,2.36416 -1.55792,-4.6e-4 0.60527,1.53114 -1.76538,1.00225 -0.66717,1.13253 -4.39626,-0.44311 -2.73159,-2.21094 -2.88586,-0.0685 -0.94535,0.68072 -2.3382,0.34228 -3.41417,1.72471 -2.76637,-2.06942 -2.09966,-1.19501 -0.77068,-2.3113 -1.18097,-0.53225 -2.10987,0.081 -1.13161,1.67405 -2.46199,0.5283 -1.45185,-0.98428 -0.9967,1.39866 -1.4668,-0.98452 -1.01941,0.79003 -0.62312,2.96757 -0.91927,1.04595 -1.27139,0.0641 -2.22843,1.28264 -1.21576,-0.15219 -1.75229,1.0237 -0.95113,-0.12843 -2.30969,1.25574 -1.63384,0.36036 -2.65115,-1.53554 -1.0325,-1.69933 1.38764,-1.8588 -1.19547,-3.48824 -1.3421,-0.56169 0.79443,-1.42381 -0.67597,-2.78468 0.68177,-1.12975 -1.32135,-0.97478 -0.46583,-1.82125 1.18528,-2.10477 -1.37444,-5.01706 1.1804,-1.87376 -0.2186,-5.12242 0.50849,-2.00752 1.86785,-1.28043 -0.96273,-1.55154 0.72767,-2.81377 2.59123,-0.70924 3.94537,-0.35676 0.0982,-2.88691 -1.43158,-2.03939 0.33289,-2.10292 -1.34059,-2.42501 0.44845,-0.95357 0.0881,-2.49584 -0.76,-1.55525 0.49828,-0.80474 -0.72523,-4.14115 -2.31456,-1.84953 0.30055,-2.0307 0.95588,-0.46179 1.68994,-2.48506 -0.98301,-3.12729 0.3913,-1.74557 1.3895,-1.36018 -0.28247,-1.46935 0.51034,-1.48721 -0.0817,-1.858 -1.45047,-2.58011 -0.40209,-1.42022 1.86415,-5.10166 -0.20272,-0.35897 0.55148,-0.99726 -3.13251,-4.16562 -0.0315,-2.5196 0.4766,-1.07237 -1.1098,-0.98591 0.48565,-2.71248 -1.39866,-2.86917 0.0861,-2.9342 -0.96516,-2.74388 -1.80608,-1.84107 -0.55346,-1.39773 0.32374,-2.14614 -1.44664,-1.61924 -0.65836,-1.94492 1.41801,-2.5378 -0.9851,-3.11374 0.0968,-1.99025 2.29416,-1.11016 0.61106,-1.5505 -0.3599,-1.59732 1.03969,-0.67075 -0.37935,-1.23175 -1.9454,-0.3431 -0.7286,-1.95547 -1.51178,-0.64317 -0.31399,-3.39586 -0.7993,-0.44114 0.72523,-2.43047 1.75183,-2.01597 -0.85725,-1.7523 1.65458,-2.21453 1.29318,0.75352 3.19116,3.41266 3.24101,0.55172 2.72568,-1.13277 0.55589,-1.25249 2.15288,0.48206 2.33241,1.46878 1.23707,1.23256 2.08379,0.2208 1.53694,0.76418 2.49166,-0.35757 1.4063,-0.62915 2.17038,-0.0841 2.34306,0.51498 2.79488,3.19673 3.55686,-0.58614 1.07307,0.24815 1.70303,2.73809 0.65603,4.27455 1.84421,2.71004 1.94922,0.54963 1.87237,-0.12437 1.79877,1.09394 0.96366,1.54308 -0.79965,2.19007 0.33382,1.39506 1.42519,0.56192 1.69816,-2.88389 3.36051,-2.43858 1.50506,-0.1326 1.44896,-1.70395 -0.1625,-1.95305 1.79008,-0.85494 1.3043,1.99929 2.00578,1.05453 0.92796,-0.0593 1.89068,2.14985 0.1195,1.7065 1.53949,1.2678 -1.08954,2.67492 -2.17813,-0.42492 -0.12042,1.1454 1.66478,0.564 0.19449,2.64281 0.66229,1.04526 1.47655,0.4729 -0.2579,2.03916 -1.1804,0.57792 -1.11572,-0.74981 -2.56886,0.47649 0.0744,3.59221 2.23805,2.74191 1.71463,0.80463 0.45714,0.83964 2.24049,1.47898 3.50957,0.0334 4.57915,2.75639 5.23034,-2.39071 1.81708,-0.0854 2.13896,-1.98178 0.75664,0.3913 0.97722,2.86362 2.02479,1.15919 2.14845,-0.3053 1.8419,0.76591 1.80062,1.69504 3.51965,-0.18337 2.99087,0.30577 1.67545,-0.89551 1.59744,-3.47421 2.285,0.55833 2.07695,-0.20539 0.7083,1.94075 4.1109,0.50699 2.53988,2.74457 0.96911,0.28119 6.19015,-1.56104 -1.69329,-3.56949 0.63575,-1.55977 2.37252,3.91014 1.53844,1.62595 2.00299,-0.0214 0.18824,1.33966 1.02323,0.52795 2.00868,-1.94921 0.89597,1.16266 1.04501,-0.49353 0.34738,-1.60474 2.02665,-1.38997 1.38416,1.86404 0.93422,0.28524 1.53021,-1.74557 -0.61489,-1.28564 1.59315,-1.29909 2.53316,-0.72976 0.6638,-2.19088 1.3793,-1.25285 -0.24966,-1.04595 1.79633,-0.30843 2.08819,-2.58033 1.65111,1.4296 0.6135,1.17009 -0.58974,1.43598 1.01836,1.10181 1.64102,-1.39483 1.48292,1.13763 1.27046,2.18776 1.46253,1.96591 -0.3687,3.44501 -1.149,1.36759 1.031,1.53322 1.79772,1.26177 0.70495,1.51816 1.22978,4.55251 -2.4132,0.43524 -2.17082,1.81569 1.00341,1.74741 -0.5137,2.03731 1.06623,0.24318 -1.40978,2.46373 -1.60335,-1.4434 0.0208,-1.31138 -1.84814,0.0474 0.30333,3.90528 -1.09092,2.35801 -0.13793,2.40393 1.63673,1.38463 1.0121,3.7335 1.94435,-0.72176 1.77269,1.34928 -0.61153,3.02102 -0.84137,1.48118 -1.29272,-0.14466 -3.08998,3.23301 -1.79436,3.37188 -0.0445,2.01887 1.54424,0.14581 2.50847,2.00196 0.71653,2.41377 -2.08668,0.85053 0.17468,2.84541 -1.58249,0.55973 -1.58399,-0.68943 -3.45428,3.4355 -1.24913,0.66717 -1.87481,-0.52321 -2.76394,2.92702 -2.48134,-0.0501 -0.50756,0.92761 1.00005,2.86246 1.49057,1.55733 0.70681,1.52801 1.44803,0.51428 1.3276,2.183 2.82386,1.44166 0.33335,1.55108 -1.509,2.97129 -1.18863,1.61343 -0.62949,2.45887 3.99672,3.59324 1.22502,1.842 0.28445,2.72696 1.6497,2.50373 -2.47022,1.23418 0.67099,2.37471 -0.89353,1.57496 0.15045,1.12151 -2.24432,0.34969 -3.78821,-0.70123 -0.2259,-1.09487 -1.61691,-0.40567 -2.04496,-1.76412 -2.26136,2.43684 z"
       id="id25"
       class="svgpath fianarantsoa"
       inkscape:label="#path61" />
    <path
       inkscape:connector-curvature="0"
       d="m 430.08454,299.29284 -1.08814,-0.95091 -2.01158,0.45749 -0.63378,-1.47608 -2.75188,-0.37496 -1.24775,-0.63158 0.45332,-2.52563 -1.23801,-1.52616 0.494,-1.77535 1.10784,-1.40271 1.25215,0.5268 0.87279,-1.83413 2.16202,-2.37448 1.00678,-1.74672 -0.16495,-1.17565 -1.4427,-1.51283 -0.0227,-2.55031 -1.46831,-0.66867 1.19686,-1.11445 -0.39617,-2.35652 -1.67348,-0.0818 -0.76487,-1.71207 0.52298,-1.05545 -0.97537,-1.58226 2.70053,-1.79204 -0.19739,-1.94076 -1.4223,-1.48571 -2.51623,-0.3454 -1.4456,1.74962 -1.93138,-0.44346 0.80267,-1.5309 -2.86988,-4.48794 -1.91641,-0.21409 -4.65798,1.27012 0.61153,-3.02102 -1.77269,-1.34928 -1.94435,0.72176 -1.0121,-3.7335 -1.63673,-1.38463 0.13793,-2.40393 1.09092,-2.35801 -0.30333,-3.90528 1.84814,-0.0474 -0.0208,1.31137 1.60335,1.4434 1.40978,-2.46373 -1.06623,-0.24318 0.5137,-2.03731 -1.00341,-1.74741 2.17082,-1.81569 2.4132,-0.43524 -1.22978,-4.55251 -0.70495,-1.51816 -1.79772,-1.26177 -1.031,-1.53322 1.149,-1.36759 0.3687,-3.44501 -1.46253,-1.96591 0.68745,-0.74447 -0.4073,-2.3695 1.19246,-0.61535 2.82351,-0.03 2.06628,-1.98642 0.43975,-1.57136 4.01075,-0.68652 1.14656,1.12651 1.97541,0.014 3.44512,-2.062 0.42863,-0.98591 2.24675,-0.14523 2.37982,2.13525 0.0305,4.40935 1.80561,2.62079 0.18568,5.33314 3.98849,0.8759 -0.6594,3.1017 0.26416,2.20027 1.82821,2.46258 0.4277,4.87183 -0.26705,2.36996 -1.08467,1.47747 0.27528,1.63256 1.22932,-0.11996 0.61245,2.8009 3.47514,4.00855 1.41953,-1.03529 1.39575,0.77485 -1.1345,1.43412 0.75815,3.42681 2.24385,0.27192 2.69474,-1.05233 2.01934,-0.31979 1.95698,0.55949 0.64538,2.91449 3.47131,1.7997 1.39136,-1.24937 2.33924,-8.3e-4 1.41848,2.0402 3.08708,-0.49608 0.88194,0.73392 1.40793,-0.24027 0.56888,-2.49155 2.84773,-2.00926 1.16545,0.92622 1.83168,0.3126 1.87609,1.08884 0.84044,-1.84861 -1.22746,-1.86322 0.11232,-1.25029 2.806,-2.95924 -0.49597,-1.72713 -1.55049,-0.24306 -0.27435,-2.4234 1.04409,-1.84525 1.68263,2.65591 2.02757,1.00897 0.98162,-0.89944 1.17901,0.64874 1.10935,2.1772 2.33392,0.87557 1.82346,-0.36209 1.25736,-0.81449 0.30044,0.88195 -0.56505,2.83265 2.18381,1.54888 -1.5046,0.89006 -1.15721,2.81585 1.7852,1.0172 -0.87325,2.57849 0.65546,1.21575 -0.14176,2.29995 -0.58533,1.01744 1.41755,0.91926 1.74741,3.6519 0.11591,3.64541 -1.21343,0.43373 -1.30813,-0.878 -0.35607,-1.44178 -1.34835,-0.35247 -0.10014,1.6256 1.17808,0.972 -0.27192,1.16395 2.84136,2.29763 -1.37791,1.67371 0.70101,1.3713 -2.72279,-0.6135 -1.00874,0.6674 0.0267,2.65393 0.92262,1.2146 -1.89126,0.79454 -1.06426,-0.56644 -1.81674,0.18697 -0.67435,0.87104 -1.77315,-1.16371 -1.76539,0.0278 -3.69235,1.21332 -1.59025,-1.60602 -0.90709,0.45749 -1.31694,-0.96644 -1.47412,-0.28907 -1.56997,1.43911 0.10455,3.54573 0.60619,1.62201 -0.43453,2.12887 -2.93663,2.37529 -1.29364,0.62602 -0.2681,1.51503 -0.95404,1.52928 -1.07064,0.62069 0.62359,1.32563 2.10221,1.92673 -0.16308,0.92216 0.97432,1.99327 -0.69707,4.32972 0.25245,2.24073 -0.91869,1.41361 0.95404,0.97489 -2.11809,0.7818 -1.28449,-1.09439 -1.1592,-2.24989 -2.6894,0.44775 -1.81661,-0.93606 -1.16893,1.86959 -3.1688,0.0619 -1.32181,0.93444 -2.11809,-1.62675 -1.13161,-2.84495 -1.56846,-0.83187 -0.68316,-2.7163 0.59414,-1.18608 -1.38173,-1.71868 0.23564,-1.9214 -0.63239,-2.10963 1.88488,-0.35699 -0.266,-2.23007 -1.52349,-2.25428 -1.35612,-0.0303 -1.46113,-2.28767 -2.28152,-0.38922 -1.66722,1.25111 -0.76441,2.70516 -1.10889,0.1406 -1.48326,-1.6868 -4.04657,1.23534 -0.1224,1.80781 -1.62548,0.78075 z"
       id="id27"
       class="svgpath fianarantsoa"
       inkscape:label="#path63" />
    <path
       inkscape:connector-curvature="0"
       d="m 430.58619,213.59356 1.2671,0.41415 0.10686,-2.32465 -0.50118,-1.62896 -1.33433,-2.0394 -0.62509,-1.9287 0.94882,-1.11294 -0.68896,-1.35462 1.80121,-1.17646 2.7426,2.11381 2.89502,-0.0536 0.55497,-0.90293 2.19598,-0.81239 1.28055,0.093 -0.42955,-2.43858 2.37981,-0.28015 0.5341,-1.32633 1.7698,1.1556 0.90129,-1.12292 4.81237,0.9763 2.40149,-1.21043 2.2391,1.08489 0.98591,1.21135 5.0093,0.82584 2.59215,2.04508 1.92754,-0.52587 0.42712,-4.44958 1.63048,-0.80833 3.08175,1.8952 1.99569,1.89891 0.54616,-1.19836 2.08575,-0.72176 0.77983,0.29266 1.5549,-1.1505 4.02385,-1.75854 1.0493,0.7658 1.30768,1.93449 3.58212,1.06995 0.73925,-2.03105 -0.076,-1.3203 1.85881,-0.62822 1.22445,2.20259 2.43208,1.06194 3.38705,0.25999 1.10065,2.6807 -0.5225,2.11613 0.73682,0.5443 -1.0871,1.97703 0.70159,1.01478 -0.35178,1.68483 -1.46495,2.34237 -2.18335,2.27064 0.71364,1.52452 0.0487,3.40931 -1.1272,1.3312 -1.83851,3.18027 1.5448,1.69155 -0.97825,2.24849 0.0677,2.07405 0.74319,1.65899 1.16347,0.81807 0.29754,1.72982 -2.04495,3.8515 0.17119,1.85394 -1.65167,1.90493 0.0267,5.17551 -1.41512,2.48425 -1.25736,0.81448 -1.82346,0.36209 -2.33392,-0.87556 -1.10935,-2.17721 -1.17902,-0.64873 -0.98161,0.89944 -2.02758,-1.00898 -1.68262,-2.65591 -1.0441,1.84525 0.27436,2.4234 1.55049,0.24306 0.49597,1.72713 -2.806,2.95925 -0.11232,1.25029 1.22746,1.86321 -0.84044,1.84861 -1.87609,-1.08883 -1.83168,-0.31261 -1.16545,-0.92622 -2.84773,2.00926 -0.56888,2.49155 -1.40793,0.24028 -0.88194,-0.73393 -3.08708,0.49608 -1.41848,-2.0402 -2.33925,8.4e-4 -1.39135,1.24936 -3.47131,-1.7997 -0.64538,-2.91449 -1.95698,-0.55949 -2.01934,0.31979 -2.69474,1.05233 -2.24385,-0.27192 -0.75815,-3.42681 1.1345,-1.43412 -1.39576,-0.77484 -1.41952,1.03528 -3.47514,-4.00854 -0.61246,-2.80091 -1.22931,0.11996 -0.27528,-1.63256 1.08466,-1.47746 0.26706,-2.36997 -0.4277,-4.87182 -1.82821,-2.46259 -0.26416,-2.20027 0.6594,-3.10168 -3.9885,-0.87592 -0.18568,-5.33314 -1.80561,-2.62078 -0.0305,-4.40936 z"
       id="id28"
       class="svgpath fianarantsoa"
       inkscape:label="#path65" />
    <path
       inkscape:connector-curvature="0"
       d="m 403.07541,315.44723 -1.64971,-2.50373 -0.28444,-2.72696 -1.22503,-1.842 -3.99672,-3.59324 0.62949,-2.45887 1.18864,-1.61343 1.509,-2.97129 -0.33335,-1.55108 -2.82386,-1.44166 -1.3276,-2.183 -1.44804,-0.51428 -0.7068,-1.52801 -1.49058,-1.55733 -1.00005,-2.86246 0.50757,-0.92761 2.48134,0.0501 2.76393,-2.92702 1.87481,0.52321 1.24913,-0.66717 3.45429,-3.4355 1.58399,0.68943 1.58248,-0.55973 -0.17467,-2.84541 2.08668,-0.85053 -0.71653,-2.41377 -2.50848,-2.00196 -1.54423,-0.14581 0.0445,-2.01887 1.79436,-3.37188 3.08998,-3.23301 1.29271,0.14466 0.84138,-1.48118 4.65797,-1.27012 1.91642,0.21409 2.86987,4.48794 -0.80266,1.5309 1.93137,0.44346 1.4456,-1.74962 2.51623,0.3454 1.4223,1.48571 0.1974,1.94075 -2.70054,1.79205 0.97537,1.58225 -0.52297,1.05545 0.76487,1.71208 1.67347,0.0818 0.39617,2.35652 -1.19686,1.11445 1.46832,0.66866 0.0227,2.55032 1.4427,1.51282 0.16494,1.17565 -1.00677,1.74673 -2.16203,2.37448 -0.87278,1.83413 -1.25215,-0.5268 -1.10784,1.40271 -0.494,1.77535 1.23801,1.52616 -0.45332,2.52563 1.24775,0.63158 2.75187,0.37496 0.63379,1.47608 2.01157,-0.45749 1.08814,0.95091 -1.00874,2.58497 -1.50274,1.45557 -1.89069,0.79512 -2.75373,-1.17901 -0.87719,2.12215 -5.81137,0.25998 -1.95258,1.22723 -2.97199,3.24066 2.02178,1.65122 -1.57182,0.94129 0.14894,1.67903 -0.99368,1.35751 -1.44223,0.82387 -2.23227,0.10594 -2.15727,0.9771 -2.01355,-1.88824 z"
       id="id26"
       class="svgpath fianarantsoa"
       inkscape:label="#path67" />
  </g>
</svg>
